Email,Name
hc.joshi@maruti.co.in,
kanwaldeep.singh@maruti.co.in,
pdhawan@maruti.co.in,
rashmi.manek@gmail.com,
rashmi.manek@maruti.co.in,
neerja.bharat@maruti.co.in,
neerjabharat@gmail.com,
rahul.bharti@maruti.co.in,
Ranjit.S@maruti.co.in,
ashish.chutani@maruti.co.in,
vivek.kumar@maruti.co.in,
Raghavi.pasupula@maruti.co.in,
Nikhil.vyas@maruti.co.in,
Ankit.Bhardwaj2@maruti.co.in,
Balamurali.Krishna@maruti.co.in,
Pinaki.Mukherjee@maruti.co.in,
IndiaMarutiTeam@text100.com,
ankit.bhardwaj2@maruti.co.in,
ankit.bhardwaj2@maruti.co.in,
anushree.1122@gmail.com,
anushree.1122@gmail.com,
